br/com/ithappens/pdv/ws/mapper/BalcaoCapaMapper.class
br/com/ithappens/pdv/ws/service/IVendaBalcaoService.class
br/com/ithappens/pdv/ws/model/TipoCobranca.class
br/com/ithappens/pdv/ws/model/dto/BalcaoCapaDTO.class
br/com/ithappens/pdv/ws/service/VendaBalcaoService.class
br/com/ithappens/pdv/ws/model/estoque/Pedido.class
br/com/ithappens/pdv/ws/model/dto/BalcaoProdutoDTO.class
br/com/ithappens/pdv/ws/mapper/typeHandler/StatusPedidoTypeHandler.class
br/com/ithappens/pdv/ws/model/dto/BalcaoFinalizadoraDTO.class
br/com/ithappens/pdv/ws/model/scheduler/ServicoAgenda.class
br/com/ithappens/pdv/ws/model/TipoFinalizadora.class
br/com/ithappens/pdv/ws/mapper/ServicoMapper.class
br/com/ithappens/pdv/ws/service/validation/IVendaBalcaoValidacao.class
br/com/ithappens/pdv/ws/mapper/typeHandler/StatusServicoAgendaTypeHandler.class
br/com/ithappens/pdv/ws/model/scheduler/Servico.class
br/com/ithappens/pdv/ws/WsApplicationConfiguration.class
br/com/ithappens/pdv/ws/mapper/typeHandler/TipoMovimentoTypeHandler.class
br/com/ithappens/pdv/ws/service/validation/VendaBalcaoVendaValidacao.class
br/com/ithappens/pdv/ws/mapper/typeHandler/StatusItemPedidoTypeHandler.class
br/com/ithappens/pdv/ws/WsApplication.class
br/com/ithappens/pdv/ws/model/estoque/StatusItemPedido.class
br/com/ithappens/pdv/ws/model/estoque/ItemPedido.class
br/com/ithappens/pdv/ws/model/dto/id/BalcaoCapaVendedorDTOId.class
br/com/ithappens/pdv/ws/model/dto/id/BalcaoProdutoDTOId.class
br/com/ithappens/pdv/ws/model/Filial.class
br/com/ithappens/pdv/ws/controller/PedidoController.class
br/com/ithappens/pdv/ws/model/scheduler/StatusServicoAgenda.class
br/com/ithappens/pdv/ws/model/dto/id/BalcaoCapaDTOId.class
br/com/ithappens/pdv/ws/mapper/PedidoMapper.class
br/com/ithappens/pdv/ws/model/estoque/TipoMovimento.class
br/com/ithappens/pdv/ws/model/dto/id/BalcaoCapaFilialDTOId.class
br/com/ithappens/pdv/ws/model/dto/id/BalcaoCapaPedidoDTOId.class
br/com/ithappens/pdv/ws/model/estoque/StatusPedido.class
br/com/ithappens/pdv/ws/model/dto/id/BalcaoFinalizadoraDTOId.class
